0
0
0
1
0
0
2
0
0
3
0
0
4
0
0
5
0
0
6
0
0
7
0
0
8
0
0
9
1
1
10
1
1
11
0
0
12
0
0
13
0
0
14
0
0
15
0
0
16
0
0
17
0
0
18
0
0
19
0
0
20
0
0
21
0
0
22
0
0
23
0
0
24
0
0
25
0
0
26
0
0
27
0
0
28
0
0
29
0
0
30
0
0
31
0
0
32
1
1
33
0
1
34
0
1
35
0
1
36
0
1
37
0
1
38
0
1
39
0
1
40
0
1
41
0
1
42
0
1
43
0
1
44
0
1
45
0
1
46
0
1
47
0
1
48
0
1
49
0
1
50
0
1
51
0
1
52
0
1
53
0
1
54
0
1
55
0
1
56
0
1
57
0
1
58
0
1
59
0
1
60
0
1
61
0
1
62
0
1
63
0
1
64
0
1
65
0
1
66
0
1
67
0
1
68
0
1
69
0
1
70
0
1
71
0
1
72
0
1
73
0
1
74
0
1
75
0
1
76
0
1
77
0
1
78
0
1
79
0
1
80
0
1
81
0
1
82
0
1
83
0
1
84
0
1
85
0
1
86
0
1
87
0
1
88
0
1
89
0
1
90
0
1
91
0
1
92
0
1
93
0
1
94
0
1
95
0
1
96
0
1
97
0
1
98
0
1
99
0
1
100
0
1
101
0
1
102
0
1
103
0
1
104
0
1
105
0
1
106
0
1
107
0
1
108
0
1
109
0
1
110
0
1
111
0
1
112
0
1
113
0
1
114
0
1
115
0
1
116
0
1
117
0
1
118
0
1
119
0
1
120
0
1
121
0
1
122
0
1
123
0
1
124
0
1
125
0
1
126
0
1
127
0
0
